Data Simulation
…
set.seed(1234)
dv <- c(rnorm(12, 1000, 50), rnorm(12, 1020, 50))
dv

##  [1]  939.6467 1013.8715 1054.2221  882.7151 1021.4562 1025.3028  971.2630
##  [8]  972.6684  971.7774  955.4981  976.1404  950.0807  981.1873 1023.2229
## [15] 1067.9747 1014.4857  994.4495  974.4402  978.1414 1140.7918 1026.7044
## [22]  995.4657  997.9726 1042.9795

We now need to combined our 3 columns into a tibble. We use the cbind() function to first bind the three variables together as columns, and then as_tibble() to convert these three combined columns to a tibble.

my_data <- as_tibble(cbind(participant, condition, dv))
my_data

## # A tibble: 24 x 3
##    participant condition dv              
##    <chr>       <chr>     <chr>           
##  1 1           fast      939.646712530729
##  2 2           fast      1013.87146210553
##  3 3           fast      1054.22205883415
##  4 4           fast      882.715114868533
##  5 5           fast      1021.45623444055
##  6 6           fast      1025.30279460788
##  7 7           fast      971.263001993268
##  8 8           fast      972.668407210791
##  9 9           fast      971.777400045336
## 10 10          fast      955.498108547795
## #  with 14 more rows

As you can see, the columns in the tibble arent yet of the correct type. The column condition should be a factor, and dv an integer. Lets fix that and map the tibble with the renamed columns onto a new variable called my_tidied_data.

my_tidied_data <- my_data %>%
  mutate(condition = factor(condition), dv = as.integer(dv))

my_tidied_data

## # A tibble: 24 x 3
##    participant condition    dv
##    <chr>       <fct>     <int>
##  1 1           fast        939
##  2 2           fast       1013
##  3 3           fast       1054
##  4 4           fast        882
##  5 5           fast       1021
##  6 6           fast       1025
##  7 7           fast        971
##  8 8           fast        972
##  9 9           fast        971
## 10 10          fast        955
## #  with 14 more rows
…
Now, lets run t-tests for each of the 100 datasets.

result <- NULL
for (i in 1:total_samples) {
  result <- rbind(tidy(t.test(filter(all_tidied_data, 
                                     condition == "fast" & sample == i)$dv,
                              filter(all_tidied_data, 
                                     condition == "slow" & sample == i)$dv,
                              paired = FALSE)), result)
}

result

## # A tibble: 100 x 10
##    estimate estimate1 estimate2 statistic p.value parameter conf.low conf.high
##       <dbl>     <dbl>     <dbl>     <dbl>   <dbl>     <dbl>    <dbl>     <dbl>
##  1     6.5      1013.     1007.     0.364   0.720      20.2    -30.7     43.7 
##  2   -15        1000.     1015.    -0.695   0.494      22.0    -59.7     29.7 
##  3     7.92     1019.     1011.     0.445   0.661      21.0    -29.1     44.9 
##  4   -16.4       984.      999.    -0.697   0.493      22.0    -65.3     32.5 
##  5   -10.8      1002.     1012.    -0.517   0.612      16.9    -54.7     33.2 
##  6     7.25     1000.      993      0.359   0.723      20.4    -34.8     49.3 
##  7   -35         994.     1030.    -1.66    0.113      20.6    -79.0      8.99
##  8   -27.5       983      1010.    -1.40    0.175      21.8    -68.2     13.2 
##  9     4.83     1026.     1021.     0.246   0.808      18.3    -36.3     46.0 
## 10   -35.8       996.     1032     -1.58    0.130      18.9    -83.2     11.5 
## #  with 90 more rows, and 2 more variables: method <chr>, alternative <chr>
…
